
<svg width="350px" height="408px" viewBox="0 0 350 408" version="1.1" xmlns="http://www.w3.org/2000/svg" xmlns:xlink="http://www.w3.org/1999/xlink">
    <g id="Page-1" stroke="none" stroke-width="1" fill="none" fill-rule="evenodd" >
        <g id="Home" transform="translate(-1089.000000, -3795.000000)" >
            <g id="Group-43" transform="translate(-1.000000, 3184.000000)">
                <g id="Group-21" transform="translate(0.000000, 0.500000)">
                    <path fill="#212121" opacity="0.0299999993" d="M1497,606.5 C1721.77989,606.5 1904,788.720107 1904,1013.5 C1904,1238.27989 1721.77989,1420.5 1497,1420.5 C1272.22011,1420.5 1090,1238.27989 1090,1013.5 C1090,788.720107 1272.22011,606.5 1497,606.5 Z M1502,857.5 C1413.08216,857.5 1341,929.582155 1341,1018.5 C1341,1107.41784 1413.08216,1179.5 1502,1179.5 C1590.91784,1179.5 1663,1107.41784 1663,1018.5 C1663,929.582155 1590.91784,857.5 1502,857.5 Z" id="annulus-3"></path>
                </g>
            </g>
        </g>
    </g>
</svg>
