<?xml version="1.0" encoding="UTF-8"?>
<svg width="80px" height="62px" viewBox="0 0 80 62" version="1.1" xmlns="http://www.w3.org/2000/svg" xmlns:xlink="http://www.w3.org/1999/xlink">
    <title>quotation mark</title>
    <defs>
        <linearGradient x1="114.934979%" y1="75.3254508%" x2="32.9141828%" y2="45.8916736%" id="linearGradient-1">
            <stop stop-color="#FFBC2C" stop-opacity="0.1" offset="0%"></stop>
            <stop stop-color="#FFBC2C" offset="100%"></stop>
        </linearGradient>
    </defs>
    <g id="Page-1" stroke="none" stroke-width="1" fill="none" fill-rule="evenodd">
        <g id="Home" transform="translate(-247.000000, -4678.000000)" fill="url(#linearGradient-1)" fill-rule="nonzero">
            <g id="Group-30" transform="translate(223.000000, 4678.000000)">
                <g id="Group" transform="translate(24.000000, 0.000000)">
                    <path d="M7.10223768,56.6554069 C2.48107229,51.6961322 0,46.1339475 0,37.1174965 C0,21.251444 11.0234984,7.03092784 27.0540071,0 L31.0605126,6.24669153 C16.0978072,14.4245083 13.1725646,25.0366308 12.0060569,31.7275718 C14.4153441,30.467354 17.5694016,30.0276376 20.6606472,30.3177597 C28.7544165,31.0747971 35.1343166,37.7884039 35.1343166,46.1339475 C35.1343166,54.8965263 28.1038489,62 19.4313275,62 C14.6172396,62 10.0140205,59.7787527 7.10223768,56.6554069 L7.10223768,56.6554069 Z M51.967921,56.6554069 C47.3467557,51.6961322 44.8656834,46.1339475 44.8656834,37.1174965 C44.8656834,21.251444 55.8891818,7.03092784 71.9196904,0 L75.926196,6.24669153 C60.9634906,14.4245083 58.038248,25.0366308 56.8717402,31.7275718 C59.2810274,30.467354 62.435085,30.0276376 65.5263305,30.3177597 C73.6200998,31.0747971 80,37.7884039 80,46.1339475 C80,54.8965263 72.9695323,62 64.2970108,62 C59.482923,62 54.8797039,59.7787527 51.967921,56.6554069 L51.967921,56.6554069 Z" id="Shape"></path>
                </g>
            </g>
        </g>
    </g>
</svg>
