module gitlab.com/commonground/haven/haven/haven/cli

go 1.16

replace k8s.io/api => k8s.io/api v0.21.4

replace k8s.io/apiextensions-apiserver => k8s.io/apiextensions-apiserver v0.21.4

replace k8s.io/apimachinery => k8s.io/apimachinery v0.21.5-rc.0

replace k8s.io/apiserver => k8s.io/apiserver v0.21.4

replace k8s.io/cli-runtime => k8s.io/cli-runtime v0.21.4

replace k8s.io/client-go => k8s.io/client-go v0.21.4

replace k8s.io/cloud-provider => k8s.io/cloud-provider v0.21.4

replace k8s.io/cluster-bootstrap => k8s.io/cluster-bootstrap v0.21.4

replace k8s.io/code-generator => k8s.io/code-generator v0.21.5-rc.0

replace k8s.io/component-base => k8s.io/component-base v0.21.4

replace k8s.io/component-helpers => k8s.io/component-helpers v0.21.4

replace k8s.io/controller-manager => k8s.io/controller-manager v0.21.4

replace k8s.io/cri-api => k8s.io/cri-api v0.21.5-rc.0

replace k8s.io/csi-translation-lib => k8s.io/csi-translation-lib v0.21.4

replace k8s.io/kube-aggregator => k8s.io/kube-aggregator v0.21.4

replace k8s.io/kube-controller-manager => k8s.io/kube-controller-manager v0.21.4

replace k8s.io/kube-proxy => k8s.io/kube-proxy v0.21.4

replace k8s.io/kube-scheduler => k8s.io/kube-scheduler v0.21.4

replace k8s.io/kubectl => k8s.io/kubectl v0.21.4

replace k8s.io/kubelet => k8s.io/kubelet v0.21.4

replace k8s.io/legacy-cloud-providers => k8s.io/legacy-cloud-providers v0.21.4

replace k8s.io/metrics => k8s.io/metrics v0.21.4

replace k8s.io/mount-utils => k8s.io/mount-utils v0.21.5-rc.0

replace k8s.io/sample-apiserver => k8s.io/sample-apiserver v0.21.4

replace k8s.io/sample-cli-plugin => k8s.io/sample-cli-plugin v0.21.4

replace k8s.io/sample-controller => k8s.io/sample-controller v0.21.4

require (
	github.com/AlecAivazis/survey/v2 v2.3.1
	github.com/Masterminds/semver/v3 v3.1.1
	github.com/google/uuid v1.1.2 // indirect
	github.com/gookit/color v1.4.2
	github.com/gorilla/mux v1.8.0
	github.com/jawher/mow.cli v1.2.0
	github.com/lunixbochs/vtclean v1.0.0
	github.com/olekukonko/tablewriter v0.0.4
	github.com/pkg/errors v0.9.1
	github.com/pytimer/k8sutil v0.0.0-20210218131040-8ec04321364a
	github.com/stretchr/testify v1.7.0 // indirect
	golang.org/x/crypto v0.0.0-20210921155107-089bfa567519
	helm.sh/helm/v3 v3.6.3
	k8s.io/api v0.21.4
	k8s.io/apiextensions-apiserver v0.21.0
	k8s.io/apimachinery v0.21.4
	k8s.io/cli-runtime v0.21.4
	k8s.io/client-go v0.21.4
	k8s.io/kubectl v0.21.0
	k8s.io/kubernetes v1.21.4
	rsc.io/letsencrypt v0.0.3 // indirect
	sigs.k8s.io/yaml v1.2.0
)
